{
  "groupID" : 6,
  "groupName" : "Music",
  "postList" : [ {
    "postID" : 1,
    "author" : "Serge",
    "subject" : "Classical Music",
    "body" : "I love Mozart.",
    "timestamp" : "2016-12-14T03:49:16.705+0000",
    "read" : true
  }, {
    "postID" : 2,
    "author" : "Steve",
    "subject" : "Indie Music",
    "body" : "Please gie me some suggestions",
    "timestamp" : "2016-12-14T03:49:16.705+0000",
    "read" : true
  }, {
    "postID" : 3,
    "author" : "Haley",
    "subject" : "Favorite Song",
    "body" : "WHat are your favorite songs?",
    "timestamp" : "2016-12-14T03:49:16.705+0000",
    "read" : true
  } ]
}