{
  "userName" : "asvannaqwr",
  "groupMap" : {
    "1" : {
      "groupID" : 1,
      "groupName" : "CSE 310 - Discussion",
      "postList" : [ ]
    },
    "2" : {
      "groupID" : 2,
      "groupName" : "Politics",
      "postList" : [ ]
    }
  },
  "readPosts" : [ ]
}