{
  "userName" : "Haley",
  "groupMap" : {
    "2" : {
      "groupID" : 2,
      "groupName" : "Politics",
      "postList" : [ {
        "postID" : 3,
        "author" : null,
        "subject" : "I like programming servers",
        "body" : null,
        "timestamp" : 1481687356705,
        "read" : true
      }, {
        "postID" : 2,
        "author" : null,
        "subject" : "This class is awesome",
        "body" : null,
        "timestamp" : 1481687356705,
        "read" : true
      }, {
        "postID" : 1,
        "author" : null,
        "subject" : "Welcome",
        "body" : null,
        "timestamp" : 1481687356705,
        "read" : true
      } ]
    },
    "3" : {
      "groupID" : 3,
      "groupName" : "Technology",
      "postList" : [ {
        "postID" : 3,
        "author" : null,
        "subject" : "Hello",
        "body" : null,
        "timestamp" : 1481687356705,
        "read" : true
      }, {
        "postID" : 2,
        "author" : null,
        "subject" : "Politics",
        "body" : null,
        "timestamp" : 1481687356705,
        "read" : true
      }, {
        "postID" : 1,
        "author" : null,
        "subject" : "Trump",
        "body" : null,
        "timestamp" : 1481687356705,
        "read" : true
      } ]
    }
  },
  "readPosts" : [ ]
}